{
  "project_info": {
    "project_number": "237939918912",
    "firebase_url": "https://murtikar-efc89.firebaseio.com",
    "project_id": "murtikar-efc89",
    "storage_bucket": "murtikar-efc89.appspot.com"
  },
  "client": [
    {
      "client_info": {
        "mobilesdk_app_id": "1:237939918912:android:fa1f4e8fcd89cd27c6f7a5",
        "android_client_info": {
          "package_name": "com.example.murtikar"
        }
      },
      "oauth_client": [
        {
          "client_id": "237939918912-drti2rr57fbjsp3ut3brlai56ern423f.apps.googleusercontent.com",
          "client_type": 1,
          "android_info": {
            "package_name": "com.example.murtikar",
            "certificate_hash": "63aa55e9496e22930edcb8c8b6a4378f762780c5"
          }
        },
        {
          "client_id": "237939918912-ekva3hcg2l6m1rt3ueouo1r9mfndi65p.apps.googleusercontent.com",
          "client_type": 3
        }
      ],
      "api_key": [
        {
          "current_key": "AIzaSyByNwm6qwwmn4FJM7IeAJhhKW_NFekb7As"
        }
      ],
      "services": {
        "appinvite_service": {
          "other_platform_oauth_client": [
            {
              "client_id": "237939918912-ekva3hcg2l6m1rt3ueouo1r9mfndi65p.apps.googleusercontent.com",
              "client_type": 3
            }
          ]
        }
      }
    },
    {
      "client_info": {
        "mobilesdk_app_id": "1:237939918912:android:2d5b26189e4b1945c6f7a5",
        "android_client_info": {
          "package_name": "com.example.murtikar_admin_app"
        }
      },
      "oauth_client": [
        {
          "client_id": "237939918912-jd7hc8d2j6mkocqgg0pbcudk9sc2pd96.apps.googleusercontent.com",
          "client_type": 1,
          "android_info": {
            "package_name": "com.example.murtikar_admin_app",
            "certificate_hash": "63aa55e9496e22930edcb8c8b6a4378f762780c5"
          }
        },
        {
          "client_id": "237939918912-ekva3hcg2l6m1rt3ueouo1r9mfndi65p.apps.googleusercontent.com",
          "client_type": 3
        }
      ],
      "api_key": [
        {
          "current_key": "AIzaSyByNwm6qwwmn4FJM7IeAJhhKW_NFekb7As"
        }
      ],
      "services": {
        "appinvite_service": {
          "other_platform_oauth_client": [
            {
              "client_id": "237939918912-ekva3hcg2l6m1rt3ueouo1r9mfndi65p.apps.googleusercontent.com",
              "client_type": 3
            }
          ]
        }
      }
    }
  ],
  "configuration_version": "1"
}